{
  "project_repo": "git@gitlab.com:pisquared/prodday.git",
  "app_host": "0.0.0.0",
  "app_name": "prodday",
  "app_port": "5005",
  "app_server_local_port": "5000",
  "authentication_enabled": true,
  "crudy_enabled": true,
  "cache_enabled": true,
  "core_dir": "/var/www",
  "remote_shipka_path": "/var/www/shipka",
  "database_enabled": true,
  "database_mgmt_enabled": true,
  "database_mgmt_port": "8081",
  "domain": "prodday.com",
  "error_tracking_enabled": false,
  "error_tracking_port": "9000",
  "error_tracking_venv": "/var/www/sentry_venv",
  "font_awesome_enabled": true,
  "gravatar_enabled": true,
  "limiter_enabled": true,
  "main_css_framework": "bootstrap",
  "markdown_enabled": true,
  "monitoring_mgmt_enabled": true,
  "monitoring_mgmt_port": "2812",
  "queue_enabled": true,
  "queue_mgmt_enabled": true,
  "queue_mgmt_port": "15672",
  "schedule_service_enabled": true,
  "search_enabled": true,
  "shipka_version": "0.2.20180116",
  "translations_enabled": true,
  "translation_languages": ["bg", "en"],
  "uploads_enabled": true,
  "admin_webapp_enabled": true,
  "admin_webapp_port": "1337",
  "webapp_debug_enabled": true,
  "webapp_proxy_enabled": true,
  "webapp_proxy_http_port": "8080",
  "websockets_enabled": true,
  "workers_enabled": true,
  "workers_mgmt_enabled": true,
  "workers_mgmt_port": "5555",
  "workers_mgmt_service_enabled": true,
  "workers_service_enabled": true,
  "ssl_enabled": true
}

